...........
----------------------------------------------------------------------
Ran 11 tests in 0.001s

OK
Name               Stmts   Miss Branch BrPart  Cover   Missing
--------------------------------------------------------------
Diplomacy.py          63      0     30      0   100%
TestDiplomacy.py      59      0      0      0   100%
--------------------------------------------------------------
TOTAL                122      0     30      0   100%
